<svg width="200" height="36" viewBox="0 0 200 36" fill="none" xmlns="http://www.w3.org/2000/svg">
<g clip-path="url(#clip0_3_961)">
<path d="M27.1644 22.952C24.2278 27.8979 17.8522 29.5594 12.8676 26.6228L9.1582 32.9211C9.69916 33.2302 10.2788 33.5393 10.8584 33.8098L13.0608 31.4141C13.8336 31.7232 14.6451 31.9164 15.4179 32.071L16.0747 35.2395C17.3499 35.394 18.625 35.394 19.9001 35.2781L20.6342 32.1096C21.4457 31.9551 22.2571 31.7619 23.0299 31.4914L25.1938 33.9257C26.3529 33.4234 27.4735 32.8052 28.5168 32.071L27.5508 28.9798C28.169 28.4775 28.7486 27.8979 29.3282 27.241L32.4194 28.2457C32.8058 27.7433 33.1536 27.2024 33.4627 26.6614C33.7718 26.1205 34.0809 25.5409 34.3514 24.9613L31.9557 22.7588C32.2648 21.986 32.458 21.1746 32.6126 20.4018L35.7811 19.7449C35.9356 18.4698 35.9356 17.1946 35.8197 15.9195L32.6512 15.1854C32.4967 14.3739 32.3035 13.5625 32.033 12.7897L34.4673 10.6259C33.965 9.46667 33.3468 8.34611 32.6126 7.30284L29.5214 8.26883C29.0191 7.6506 28.4395 7.071 27.7826 6.4914L28.7873 3.40021C28.2849 3.01381 27.744 2.66605 27.203 2.35693L23.4936 8.65523C28.4395 11.5919 30.0624 18.0061 27.1644 22.952Z" fill="url(#paint0_linear_3_961)"/>
<path d="M22.4883 20.2088C21.0973 22.6044 18.0061 23.3772 15.6104 21.9862L13.833 25.0388C14.1035 25.1933 14.374 25.3479 14.6444 25.4638L15.7264 24.3046C16.1128 24.4592 16.4992 24.5364 16.8856 24.6137L17.1947 26.1593C17.8129 26.2366 18.4312 26.2366 19.0108 26.1593L19.3585 24.6137C19.7449 24.5364 20.1313 24.4592 20.5177 24.3046L21.561 25.4638C22.1406 25.232 22.6429 24.9228 23.1452 24.5751L22.6815 23.0681C22.9907 22.8363 23.2611 22.5272 23.5316 22.218L25.0386 22.7204C25.2318 22.4885 25.3863 22.218 25.5409 21.9476C25.6955 21.6771 25.85 21.4066 25.9659 21.1361L24.8067 20.0542C24.9613 19.6678 25.0386 19.2814 25.1159 18.895L26.6614 18.5859C26.7387 17.9677 26.7387 17.3494 26.6614 16.7698L25.1159 16.4221C25.0386 16.0357 24.9613 15.6493 24.8067 15.2629L25.9659 14.2196C25.7341 13.64 25.425 13.1377 25.0772 12.6354L23.6089 13.1377C23.3771 12.8286 23.0679 12.5581 22.7588 12.2876L23.2611 10.7806C23.0293 10.5874 22.7588 10.4329 22.4883 10.2783L20.7109 13.3309C23.1066 14.7219 23.918 17.8131 22.4883 20.2088Z" fill="url(#paint1_linear_3_961)"/>
<path d="M9.6216 28.9025C8.96472 30.0617 8.30785 31.1823 7.65097 32.3415C0.618509 27.6274 -2.5886 17.4265 2.47322 8.80977C7.57369 0.15444 18.0065 -1.93211 25.3094 1.73867C24.6912 2.78195 24.1116 3.82523 23.4933 4.86851C23.3388 5.10034 23.3001 5.21626 23.3001 5.21626C20.093 3.86387 16.4222 3.63203 13.1378 4.82986C8.96472 6.37546 6.10537 9.31209 4.71434 13.5625C2.85962 19.2039 4.90754 25.309 9.50568 28.748C9.54432 28.7866 9.54432 28.8252 9.6216 28.9025Z" fill="#000E25"/>
<path d="M20.9429 9.46684C20.5179 10.201 20.0928 10.9352 19.6678 11.6307C19.6292 11.708 19.4746 11.9012 19.4746 11.9012C17.8131 11.4761 16.0357 11.5148 14.606 12.4035C12.4808 13.6786 11.4375 16.5766 12.2103 18.9723C12.5581 19.9769 13.1377 20.827 13.9491 21.5611C13.4854 22.3726 13.0217 23.184 12.5581 23.9954C9.11912 21.4838 7.99856 16.5766 10.5102 12.6353C12.9445 8.88724 17.6199 7.84397 20.9429 9.46684Z" fill="#000E25"/>
<path fill-rule="evenodd" clip-rule="evenodd" d="M133.81 26.5457C132.496 25.8116 131.453 24.7683 130.641 23.4545C129.868 22.1408 129.482 20.6338 129.482 18.9723C129.482 17.3108 129.868 15.8038 130.641 14.4901C131.414 13.1763 132.457 12.133 133.81 11.3989C135.123 10.6647 136.592 10.2783 138.176 10.2783C139.76 10.2783 141.228 10.6647 142.542 11.3989C143.856 12.133 144.899 13.1763 145.672 14.4901C146.445 15.8038 146.831 17.3108 146.831 18.9723C146.831 20.6338 146.445 22.1408 145.672 23.4545C144.899 24.7683 143.856 25.8116 142.542 26.5457C141.228 27.2799 139.76 27.6663 138.176 27.6663C136.592 27.6663 135.162 27.2799 133.81 26.5457ZM141.035 22.1408C141.731 21.368 142.079 20.3247 142.079 19.0109C142.079 17.6585 141.731 16.6153 141.035 15.8425C140.34 15.0697 139.412 14.6833 138.215 14.6833C137.017 14.6833 136.051 15.0697 135.355 15.8425C134.66 16.6153 134.312 17.6585 134.312 19.0109C134.312 20.3247 134.66 21.368 135.355 22.1794C136.051 22.9522 136.978 23.3386 138.215 23.3386C139.374 23.3 140.34 22.9136 141.035 22.1408ZM77.4726 27.5117L74.1883 22.7203L71.3675 27.473H66.0352L71.5221 18.8177L65.842 10.5874H71.3675L74.536 15.2242L77.2794 10.5874H82.6118L77.2022 19.0882L82.9595 27.473H77.4726V27.5117ZM57.5346 14.374V10.626H46.0586V27.5116H50.7727V20.9042H55.7572V17.3493H50.7727V14.374H57.5346ZM64.2192 27.5116V10.626H59.5051V27.5116H64.2192ZM93.8947 27.5116V10.626H89.1807V27.5116H93.8947ZM109.273 10.626V14.374H104.753V27.5116H100.077V14.374H95.6335V10.626H109.273ZM128.323 14.374V10.626H114.644V14.374H119.088V27.5116H123.802V14.374H128.323ZM163.369 14.6445C162.635 13.3694 161.63 12.3648 160.278 11.6693C158.964 10.9737 157.38 10.626 155.641 10.626H148.957V27.473H155.641C157.38 27.473 158.926 27.1252 160.278 26.391C161.63 25.6569 162.635 24.6523 163.369 23.3771C164.103 22.102 164.451 20.6337 164.451 19.0108C164.451 17.388 164.103 15.9196 163.369 14.6445ZM159.66 19.0495C159.66 20.4019 159.273 21.4838 158.501 22.2179C157.728 22.9907 156.646 23.3771 155.255 23.3771H153.632V14.7218H155.255C156.646 14.7218 157.728 15.0696 158.501 15.8424C159.273 16.5765 159.66 17.6584 159.66 19.0495ZM177.241 24.7295H171.252L170.324 27.473H165.378L171.561 10.626H176.97L183.114 27.5116H178.13L177.241 24.7295ZM176.043 21.136L174.227 15.6878L172.411 21.136H176.043ZM194.049 22.1407L200 10.626H194.706L191.731 17.1561L188.755 10.626H183.385L189.335 22.1407V27.5116H194.049V22.1407Z" fill="#000E25"/>
</g>
<defs>
<linearGradient id="paint0_linear_3_961" x1="17.8813" y1="17.6804" x2="31.0273" y2="22.4191" gradientUnits="userSpaceOnUse">
<stop stop-color="#83E9FE"/>
<stop offset="1" stop-color="#66A6FF"/>
</linearGradient>
<linearGradient id="paint1_linear_3_961" x1="17.9029" y1="17.6189" x2="31.049" y2="22.3576" gradientUnits="userSpaceOnUse">
<stop stop-color="#83E9FE"/>
<stop offset="1" stop-color="#66A6FF"/>
</linearGradient>
<clipPath id="clip0_3_961">
<rect width="200" height="35.3941" fill="white"/>
</clipPath>
</defs>
</svg>
